Sampling & Downloading GSV Images
…
edges_azi %<>% 
  bind_cols(edges %>% 
              st_drop_geometry() %>%
              slice(rep(1:nrow(edges),each=4))) %>% 
  st_as_sf(coords = c("X", "Y"), crs = 4326, remove=FALSE) %>% 
  mutate(node_id = seq(1, nrow(.)))

edges_azi

## Simple feature collection with 1116 features and 9 fields
## Geometry type: POINT
## Dimension:     XY
## Bounding box:  xmin: -84.55173 ymin: 33.63878 xmax: -84.27887 ymax: 33.90884
## Geodetic CRS:  WGS 84
## # A tibble: 1,116 × 10
##    type      X     Y    azi osm_id  highway  length edge_id
##  * <chr> <dbl> <dbl>  <dbl> <chr>   <chr>     <dbl>   <int>
##  1 start -84.4  33.6  18.6  9262605 motorway  5917.       1
##  2 mid1  -84.4  33.7 177.   9262605 motorway  5917.       1
##  3 mid2  -84.4  33.7   2.36 9262605 motorway  5917.       1
##  4 end   -84.4  33.7 161.   9262605 motorway  5917.       1
##  5 start -84.4  33.8  55.8  9272835 motorway  9192.       2
##  6 mid1  -84.4  33.9 163.   9272835 motorway  9192.       2
##  7 mid2  -84.4  33.9   1.53 9272835 motorway  9192.       2
##  8 end   -84.4  33.9 196.   9272835 motorway  9192.       2
##  9 start -84.4  33.7 166.   9259730 motorway  8033.       3
## 10 mid1  -84.4  33.7  67.9  9259730 motorway  8033.       3
## # ℹ 1,106 more rows
## # ℹ 2 more variables: geometry <POINT [°]>, node_id <int>
…
